{
    "page": 4,
    "per_page": 4,
    "total": 16,
    "total_pages": 8,
    "data": [
        {
            "_id": 4,
            "firstName": "Mary",
            "lastName": "Watson",
            "avatar": "https://s3.amazonaws.com/uifaces/faces/twitter/marcoramires/128.jpg"
        },
        {
            "_id": 5,
            "firstName": "Barbara",
            "lastName": "Carpenter",
            "avatar": "https://s3.amazonaws.com/uifaces/faces/twitter/marcoramires/128.jpg"
        },
        {
            "_id": 6,
            "firstName": "Angela ",
            "lastName": "Bennett",
            "avatar": "https://s3.amazonaws.com/uifaces/faces/twitter/marcoramires/128.jpg"
        },
        {
            "_id": 7,
            "firstName": "Deborah",
            "lastName": "Parsons",
            
            "avatar": "https://s3.amazonaws.com/uifaces/faces/twitter/marcoramires/128.jpg"
        },
        {
            "_id": 8,
            "firstName": "Moira",
            "lastName": "Brockey",
            "avatar": "https://s3.amazonaws.com/uifaces/faces/twitter/marcoramires/128.jpg"
        },
        {
            "_id": 9,
            "firstName": "Angelique",
            "lastName": "Stephenson",
            "avatar": "https://s3.amazonaws.com/uifaces/faces/twitter/marcoramires/128.jpg"
        },
        {
            "_id": 10,
            "firstName": "Laura",
            "lastName": "Warren",
            "avatar": "https://s3.amazonaws.com/uifaces/faces/twitter/marcoramires/128.jpg"
        },
        {
            "_id": 11,
            "firstName": "Emma",
            "lastName": "Dally",
            "avatar": "https://s3.amazonaws.com/uifaces/faces/twitter/marcoramires/128.jpg"
        },
        {
            "_id": 12,
            "firstName": "James",
            "lastName": "Warren",
            "avatar": "https://s3.amazonaws.com/uifaces/faces/twitter/stephenmoon/128.jpg"
        },
        {
            "_id": 13,
            "firstName": "Lee",
            "lastName": "Ristow",
            "avatar": "https://s3.amazonaws.com/uifaces/faces/twitter/bigmancho/128.jpg"
        },
        {
            "_id": 14,
            "firstName": "Dom",
            "lastName": "Haswell",
            "avatar": "https://s3.amazonaws.com/uifaces/faces/twitter/marcoamires/128.jpg"
        }
    ]
}