{
    "page": 2,
    "per_page": 4,
    "total": 16,
    "total_pages": 4,
    "data": [
        {
            "id": 4,
            "first_name": "Mary",
            "last_name": "Watson",
            "avatar": "https://s3.amazonaws.com/uifaces/faces/twitter/marcoramires/128.jpg"
        },
        {
            "id": 4,
            "first_name": "Mary",
            "last_name": "Watson",
            "avatar": "https://s3.amazonaws.com/uifaces/faces/twitter/marcoramires/128.jpg"
        },
        {
            "id": 4,
            "first_name": "Mary",
            "last_name": "Watson",
            "avatar": "https://s3.amazonaws.com/uifaces/faces/twitter/marcoramires/128.jpg"
        },
        {
            "id": 4,
            "first_name": "Mary",
            "last_name": "Watson",
            "avatar": "https://s3.amazonaws.com/uifaces/faces/twitter/marcoramires/128.jpg"
        },
        {
            "id": 4,
            "first_name": "Mary",
            "last_name": "Watson",
            "avatar": "https://s3.amazonaws.com/uifaces/faces/twitter/marcoramires/128.jpg"
        },
        {
            "id": 4,
            "first_name": "Mary",
            "last_name": "Watson",
            "avatar": "https://s3.amazonaws.com/uifaces/faces/twitter/marcoramires/128.jpg"
        },
        {
            "id": 4,
            "first_name": "Mary",
            "last_name": "Watson",
            "avatar": "https://s3.amazonaws.com/uifaces/faces/twitter/marcoramires/128.jpg"
        },
        {
            "id": 5,
            "first_name": "Mary",
            "last_name": "Watson",
            "avatar": "https://s3.amazonaws.com/uifaces/faces/twitter/marcoramires/128.jpg"
        },
        {
            "id": 6,
            "first_name": "Mary",
            "last_name": "Watson",
            "avatar": "https://s3.amazonaws.com/uifaces/faces/twitter/stephenmoon/128.jpg"
        },
        {
            "id": 7,
            "first_name": "Mary",
            "last_name": "Watson",
            "avatar": "https://s3.amazonaws.com/uifaces/faces/twitter/bigmancho/128.jpg"
        },
        {
            "id": 8,
            "first_name": "Mary",
            "last_name": "Watson",
            "avatar": "https://s3.amazonaws.com/uifaces/faces/twitter/marcoamires/128.jpg"
        }
    ]
}